[
  {
    "type": "function",
    "label": "LT-2",
    "Location": "PCR1-DESK.Centre_1",
    "options": [
      {
        "type": "page",
        "label": "LT-2|PAGE 1",
        "tags": null,
        "landing_index": 0,
        "options": [
          {
            "type": "source",
            "index": 1,
            "value": 36501,
            "label": "OS1"
          },
          {
            "type": "source",
            "index": 2,
            "value": 36502,
            "label": "OS2"
          },
          {
            "type": "source",
            "index": 3,
            "value": 36503,
            "label": "OS3"
          },
          {
            "type": "source",
            "index": 4,
            "value": 36504,
            "label": "OS4"
          },
          {
            "type": "source",
            "index": 5,
            "value": 36505,
            "label": "OS5"
          },
          {
            "type": "source",
            "index": 6,
            "value": 36506,
            "label": "OS6"
          },
          {
            "type": "source",
            "index": 7,
            "value": 36507,
            "label": "OS7"
          },
          {
            "type": "source",
            "index": 8,
            "value": 36508,
            "label": "OS8"
          },
          {
            "type": "source",
            "index": 9,
            "value": 36509,
            "label": "OS9"
          },
          {
            "type": "source",
            "index": 10,
            "value": 36510,
            "label": "OS10"
          },
          {
            "type": "source",
            "index": 11,
            "value": 36511,
            "label": "OS11"
          },
          {
            "type": "source",
            "index": 12,
            "value": 36512,
            "label": "OS12"
          },
          {
            "type": "source",
            "index": 13,
            "value": 36513,
            "label": "OS13"
          },
          {
            "type": "source",
            "index": 14,
            "value": 36514,
            "label": "OS14"
          },
          {
            "type": "source",
            "index": 15,
            "value": 36515,
            "label": "OS15"
          },
          {
            "type": "source",
            "index": 16,
            "value": 36516,
            "label": "OS16"
          },
          {
            "type": "source",
            "index": 17,
            "value": 36722,
            "label": "RED OL"
          },
          {
            "type": "source",
            "index": 18,
            "value": 36724,
            "label": "GREEN OL"
          },
          {
            "type": "source",
            "index": 19,
            "value": 36742,
            "label": "BLUE OL"
          },
          {
            "type": "source",
            "index": 20,
            "value": 36744,
            "label": "YELLOW OL"
          },
          {
            "type": "source",
            "index": 21,
            "value": 36871,
            "label": "Assign 1"
          },
          {
            "type": "source",
            "index": 22,
            "value": 36872,
            "label": "Assign 2"
          },
          {
            "type": "source",
            "index": 23,
            "value": 36873,
            "label": "Assign 3"
          },
          {
            "type": "source",
            "index": 24,
            "value": 36874,
            "label": "Assign 4"
          },
          {
            "type": "source",
            "index": 25,
            "value": 36875,
            "label": "Assign 5"
          },
          {
            "type": "source",
            "index": 27,
            "value": 1281,
            "label": "LT2 MV"
          },
          {
            "type": "source",
            "index": 28,
            "value": 36851,
            "label": "PCR PGM"
          },
          {
            "type": "source",
            "index": 29,
            "value": 36854,
            "label": "PCR Line o/p"
          },
          {
            "type": "audiomode",
            "index": 31,
            "value": 36654,
            "label": "Audio|Mode"
          },
          {
            "type": "pageselect",
            "index": 32,
            "value": 2,
            "label": "Next|Page"
          }
        ]
      },
      {
        "type": "page",
        "label": "LT-2|PAGE 2",
        "tags": null,
        "landing_index": 0,
        "options": [
          {
            "type": "source",
            "index": 1,
            "value": 36711,
            "label": "LT1 i/p 1"
          },
          {
            "type": "source",
            "index": 2,
            "value": 36712,
            "label": "LT1 i/p 2"
          },
          {
            "type": "source",
            "index": 3,
            "value": 36713,
            "label": "LT1 i/p 3"
          },
          {
            "type": "source",
            "index": 4,
            "value": 36714,
            "label": "LT1 i/p 4"
          },
          {
            "type": "source",
            "index": 5,
            "value": 36715,
            "label": "LT1 i/p 5"
          },
          {
            "type": "source",
            "index": 6,
            "value": 36716,
            "label": "LT1 i/p 6"
          },
          {
            "type": "source",
            "index": 7,
            "value": 36717,
            "label": "LT1 i/p 7"
          },
          {
            "type": "source",
            "index": 8,
            "value": 36718,
            "label": "LT1 i/p 8"
          },
          {
            "type": "source",
            "index": 9,
            "value": 36719,
            "label": "LT1 i/p 9"
          },
          {
            "type": "source",
            "index": 10,
            "value": 36720,
            "label": "LT1 i/p 10"
          },
          {
            "type": "source",
            "index": 17,
            "value": 36722,
            "label": "RED OL"
          },
          {
            "type": "source",
            "index": 18,
            "value": 36724,
            "label": "GREEN OL"
          },
          {
            "type": "source",
            "index": 19,
            "value": 36742,
            "label": "BLUE OL"
          },
          {
            "type": "source",
            "index": 20,
            "value": 36744,
            "label": "YELLOW OL"
          },
          {
            "type": "source",
            "index": 21,
            "value": 36871,
            "label": "Assign 1"
          },
          {
            "type": "source",
            "index": 22,
            "value": 36872,
            "label": "Assign 2"
          },
          {
            "type": "source",
            "index": 23,
            "value": 36873,
            "label": "Assign 3"
          },
          {
            "type": "source",
            "index": 24,
            "value": 36874,
            "label": "Assign 4"
          },
          {
            "type": "source",
            "index": 25,
            "value": 36875,
            "label": "Assign 5"
          },
          {
            "type": "source",
            "index": 27,
            "value": 1285,
            "label": "LT2 MV"
          },
          {
            "type": "source",
            "index": 28,
            "value": 36851,
            "label": "PCR PGM"
          },
          {
            "type": "source",
            "index": 29,
            "value": 36854,
            "label": "PCR Line o/p"
          },
          {
            "type": "audiomode",
            "index": 31,
            "value": 36654,
            "label": "Audio|Mode"
          },
          {
            "type": "pageselect",
            "index": 32,
            "value": 1,
            "label": "Prv|Page"
          }
        ]
      }
    ]
  }
]